{
  "project_info": {
    "project_number": "600932887465",
    "firebase_url": "https://shop9696-7b494.firebaseio.com",
    "project_id": "shop9696-7b494",
    "storage_bucket": "shop9696-7b494.appspot.com"
  },
  "client": [
    {
      "client_info": {
        "mobilesdk_app_id": "1:600932887465:android:5620c50d94d032b86b32b8",
        "android_client_info": {
          "package_name": "com.shopapp"
        }
      },
      "oauth_client": [
        {
          "client_id": "600932887465-7d08kva3rcgg3buapuu9of91nu6fu2je.apps.googleusercontent.com",
          "client_type": 3
        }
      ],
      "api_key": [
        {
          "current_key": "AIzaSyAHbskVGpo3n_cAmcSIt3Y0Fltig3gX6FI"
        }
      ],
      "services": {
        "appinvite_service": {
          "other_platform_oauth_client": [
            {
              "client_id": "600932887465-7d08kva3rcgg3buapuu9of91nu6fu2je.apps.googleusercontent.com",
              "client_type": 3
            },
            {
              "client_id": "600932887465-fpb6daot826btkrarkmjgn7jioui8cm7.apps.googleusercontent.com",
              "client_type": 2,
              "ios_info": {
                "bundle_id": "vn.hit.shoppinguser9696"
              }
            }
          ]
        }
      }
    },
    {
      "client_info": {
        "mobilesdk_app_id": "1:600932887465:android:4e92b5227ba0792e6b32b8",
        "android_client_info": {
          "package_name": "vn.hit.shoppinguser9696"
        }
      },
      "oauth_client": [
        {
          "client_id": "600932887465-7d08kva3rcgg3buapuu9of91nu6fu2je.apps.googleusercontent.com",
          "client_type": 3
        }
      ],
      "api_key": [
        {
          "current_key": "AIzaSyAHbskVGpo3n_cAmcSIt3Y0Fltig3gX6FI"
        }
      ],
      "services": {
        "appinvite_service": {
          "other_platform_oauth_client": [
            {
              "client_id": "600932887465-7d08kva3rcgg3buapuu9of91nu6fu2je.apps.googleusercontent.com",
              "client_type": 3
            },
            {
              "client_id": "600932887465-fpb6daot826btkrarkmjgn7jioui8cm7.apps.googleusercontent.com",
              "client_type": 2,
              "ios_info": {
                "bundle_id": "vn.hit.shoppinguser9696"
              }
            }
          ]
        }
      }
    }
  ],
  "configuration_version": "1"
}